{"results":[{"opp_cat":"SLED Contract Opportunity","title":"Teacher State Certification Support","description_text":"United Independent School District (UISD) is seeking proposals from TEA-accredited vendors to provide Educator Preparation Programs for teachers seeking state certification. To ensure high-quality preparation, only vendors maintaining a 90% passing rate or better in compliance with Texas Administrative Code (TAC) will be considered.\n \nThe district intends to partner with a vendor offering a hybrid of online certification and test prep courses to provide personalized support across all required content areas. This is an all-or-none proposal; vendors must submit a comprehensive proposal meeting all specifications to be eligible for evaluation.","ai_summary":"Background\n The United Independent School District (UISD) is seeking proposals from Texas Education Agency (TEA) accredited vendors to provide comprehensive Educator Preparation Programs for teachers pursuing state certification. The goal of this initiative is to assist teachers who have not yet passed their Texas Certification Examinations by partnering with a vendor that offers a combination of online certification programs and test preparation courses. Only vendors with a proven 90% passing rate or better will be considered, ensuring high-quality teacher preparation.\n\nWork Details\n The selected vendor will provide the following services: \n- **Hybrid Courses**: Personalized support in areas including Bilingual (164), Core Subjects (391), ESL (154), PPR (160), Special Education Specialist EC-12, BTLPT (190), STR (293), and future adaptability for any new tests. \n- **Instructional Support**: Research-based strategies and test preparation assistance for teachers. \n- **Wellness Strategies**: Psychological strategies to reduce test anxiety and build confidence. \n- **Blended Learning**: A mix of synchronous and asynchronous sessions. \n- **Platform Management**: Creation and management of a Google Classroom platform for material distribution and feedback. \n- **Accountability**: Ongoing documentation of teacher progress, compliance, attendance, and grades reporting to UISD. \n- **Face-to-Face Sessions**: At least three face-to-face sessions annually, with schedules based on district needs.\n\nPeriod of Performance\n The program is intended for implementation during the 2026-2027 school year, with an option to renew annually for two additional years.\n\nPlace of Performance\n Services will be performed within the United Independent School District located in Laredo, Texas.\n\nBidder Requirements\n Vendors must meet the following requirements: \n- Maintain a 90% passing rate or better as per TEA standards. \n- Compliance with all Texas Administrative Code (TAC) requirements. \n- Submission of official TEA Accountability System for Educator Preparation data from the last three academic years. \n- This is an all-or-none proposal; vendors must fulfill the entire scope of work to be evaluated.\n","source_id":"RFP 2026-008","source_id_version":"RFP 2026-008-0","captured_date":"2026-05-04","posted_date":"2026-05-04","due_date":"2026-05-20","agency":{"agency_key":29140,"agency_name":"United Independent School District","agency_abbreviation":null,"agency_type":"SLED","path":"https://www.highergov.com/agency/tx-29140/"},"naics_code":{"naics_code":"611710"},"psc_code":{"psc_code":"6640"},"opp_type":{"description":"Solicitation"},"primary_contact_email":{"contact_title":null,"contact_name":"Ms. Venesa Navarro - Purchasing Manager","contact_first_name":"Ms.","contact_last_name":"Venesa","contact_email":"vnavarro@uisd.net","contact_phone":"9564731820"},"secondary_contact_email":null,"set_aside":null,"nsn":null,"val_est_low":"150000","val_est_high":"600000","pop_country":"USA","pop_state":"TX","pop_city":"Laredo","pop_zip":"","opp_key":"f4bef05d24995eab89e3ca961df4944e","version_key":"c48c9f9b6e645f89b41c3436c2255d5e","source_type":"sled","sole_source_flag":false,"product_service":"S","dibbs_status":null,"dibbs_quantity":null,"dibbs_days_to_deliver":null,"dibbs_fast_award_flag":null,"dibbs_aidc_flag":null,"dibbs_tech_docs_flag":null,"path":"https://www.highergov.com/sl/contract-opportunity/tx-teacher-state-certification-support-67090921","source_path":"https://uisd.ionwave.net/PublicDetail.aspx?bidID=1627&SourceType=1","document_path":"https://www.highergov.com/api-external/document/?api_key=6c155853f76443ad91d095b249941bc6&page_size=10&related_key=2897-RFP 2026-008"}],"meta":{"pagination":{"page":1,"pages":110,"count":110}},"links":{"first":"https://www.highergov.com/api-external/opportunity/?api_key=6c155853f76443ad91d095b249941bc6&format=json&page_number=1&page_size=1&search_id=9DntNZ-D-B2pkola-09Y5","last":"https://www.highergov.com/api-external/opportunity/?api_key=6c155853f76443ad91d095b249941bc6&format=json&page_number=110&page_size=1&search_id=9DntNZ-D-B2pkola-09Y5","next":"https://www.highergov.com/api-external/opportunity/?api_key=6c155853f76443ad91d095b249941bc6&format=json&page_number=2&page_size=1&search_id=9DntNZ-D-B2pkola-09Y5","prev":null}}